cpu/memory/cpu_wavedata.vcd
$date
	Sun Jun 21 18:44:10 2020
$end
$version
	Icarus Verilog
$end
$timescale
	1s
$end
$scope module cpu_tb $end
$var wire 8 ! WRITEDATA [7:0] $end
$var wire 1 " WRITE $end
$var wire 8 # RESULT [7:0] $end
$var wire 8 $ READDATA [7:0] $end
$var wire 1 % READ $end
$var wire 32 & PC [31:0] $end
$var wire 1 ' BUSYWAIT $end
$var reg 1 ( CLK $end
$var reg 32 ) INSTRUCTION [31:0] $end
$var reg 1 * RESET $end
$var integer 32 + i [31:0] $end
$scope module mycpu $end
$var wire 1 ( CLK $end
$var wire 32 , INSTRUCTION [31:0] $end
$var wire 1 * RESET $end
$var wire 1 - ZERO $end
$var wire 1 . WRITESEL $end
$var wire 1 / WRITEENABLE $end
$var wire 1 " WRITE $end
$var wire 8 0 TWOSCOMP [7:0] $end
$var wire 1 1 SUBMUXSEL $end
$var wire 1 2 SEL $end
$var wire 8 3 RESULT [7:0] $end
$var wire 8 4 REGOUT2 [7:0] $end
$var wire 8 5 REGOUT1 [7:0] $end
$var wire 8 6 READDATA [7:0] $end
$var wire 1 % READ $end
$var wire 32 7 PCOUT [31:0] $end
$var wire 32 8 PCIN [31:0] $end
$var wire 8 9 OPERAND1 [7:0] $end
$var wire 8 : NONIMMEDIATE [7:0] $end
$var wire 1 ; JUMP $end
$var wire 8 < IN [7:0] $end
$var wire 1 = IMMUXSEL $end
$var wire 32 > EXTNDED_SHIFT [31:0] $end
$var wire 1 ' BUSYWAIT $end
$var wire 1 ? BEQ $end
$var wire 3 @ ALUOP [2:0] $end
$var reg 8 A DESTINATION [7:0] $end
$var reg 8 B OPCODE [7:0] $end
$var reg 32 C PC [31:0] $end
$var reg 3 D READREG1 [2:0] $end
$var reg 3 E READREG2 [2:0] $end
$var reg 8 F SOURCE1 [7:0] $end
$var reg 8 G SOURCE2 [7:0] $end
$var reg 32 H STORE [31:0] $end
$var reg 1 I TEMP $end
$var reg 3 J WRITEREG [2:0] $end
$scope module alupart $end
$var wire 1 - ZERO $end
$var wire 3 K SELECT [0:2] $end
$var wire 8 L DATA2 [0:7] $end
$var wire 8 M DATA1 [0:7] $end
$var reg 8 N RESULT [0:7] $end
$upscope $end
$scope module control $end
$var wire 32 O INSTRUCTION [31:0] $end
$var reg 3 P ALUOP [2:0] $end
$var reg 1 ? BEQ $end
$var reg 1 = IMMUXSEL $end
$var reg 1 ; JUMP $end
$var reg 1 % READ $end
$var reg 1 1 SUBMUXSEL $end
$var reg 1 " WRITE $end
$var reg 1 / WRITEENABLE $end
$var reg 1 . WRITESEL $end
$upscope $end
$scope module muximmediate $end
$var wire 8 Q IMMEDIATE [7:0] $end
$var wire 1 = IMMUXSEL $end
$var wire 8 R NONIMMEDIATE [7:0] $end
$var reg 8 S OPERAND1 [7:0] $end
$upscope $end
$scope module muxsubtract $end
$var wire 1 1 SUBMUXSEL $end
$var wire 8 T TWOSCOMP [7:0] $end
$var wire 8 U REGOUT2 [7:0] $end
$var reg 8 V NONIMMEDIATE [7:0] $end
$upscope $end
$scope module myMUXPC $end
$var wire 32 W STORE [31:0] $end
$var wire 1 2 SEL $end
$var wire 32 X PCIN [31:0] $end
$var reg 32 Y PCOUT [31:0] $end
$upscope $end
$scope module myadder $end
$var wire 32 Z STORE [31:0] $end
$var wire 32 [ PCIN [31:0] $end
$var wire 32 \ EXTNDED_SHIFT [31:0] $end
$upscope $end
$scope module mymuxreg $end
$var wire 8 ] RESULT [7:0] $end
$var wire 1 . WRITESEL $end
$var wire 8 ^ READDATA [7:0] $end
$var reg 8 _ IN [7:0] $end
$upscope $end
$scope module mypc_selection $end
$var wire 1 ? BEQ $end
$var wire 1 ; JUMP $end
$var wire 1 2 SEL $end
$var wire 1 - ZERO $end
$upscope $end
$scope module myseas $end
$var wire 8 ` UNEXTENDED [7:0] $end
$var reg 32 a EXTNDED_SHIFT [31:0] $end
$upscope $end
$scope module mytwoscomplement $end
$var wire 8 b REGOUT2 [7:0] $end
$var reg 8 c TWOSCOMP [7:0] $end
$upscope $end
$scope module regfile $end
$var wire 1 ( CLK $end
$var wire 8 d IN [7:0] $end
$var wire 3 e INADDRESS [2:0] $end
$var wire 8 f OUT1 [7:0] $end
$var wire 3 g OUT1ADDRESS [2:0] $end
$var wire 8 h OUT2 [7:0] $end
$var wire 3 i OUT2ADDRESS [2:0] $end
$var wire 1 * RESET $end
$var wire 1 I WRITE $end
$var integer 32 j i [31:0] $end
$upscope $end
$upscope $end
$scope module mymemory $end
$var wire 8 k address [7:0] $end
$var wire 1 ( clock $end
$var wire 1 % read $end
$var wire 1 * reset $end
$var wire 1 " write $end
$var wire 8 l writedata [7:0] $end
$var reg 1 ' busywait $end
$var reg 1 m readaccess $end
$var reg 8 n readdata [7:0] $end
$var reg 1 o writeaccess $end
$var integer 32 p i [31:0] $end
$upscope $end
$upscope $end
$scope module cpu_tb $end
$scope module mycpu $end
$scope module regfile $end
$var reg 8 q \REGISTERS[0] [7:0] $end
$upscope $end
$upscope $end
$upscope $end
$scope module cpu_tb $end
$scope module mycpu $end
$scope module regfile $end
$var reg 8 r \REGISTERS[1] [7:0] $end
$upscope $end
$upscope $end
$upscope $end
$scope module cpu_tb $end
$scope module mycpu $end
$scope module regfile $end
$var reg 8 s \REGISTERS[2] [7:0] $end
$upscope $end
$upscope $end
$upscope $end
$scope module cpu_tb $end
$scope module mycpu $end
$scope module regfile $end
$var reg 8 t \REGISTERS[3] [7:0] $end
$upscope $end
$upscope $end
$upscope $end
$scope module cpu_tb $end
$scope module mycpu $end
$scope module regfile $end
$var reg 8 u \REGISTERS[4] [7:0] $end
$upscope $end
$upscope $end
$upscope $end
$scope module cpu_tb $end
$scope module mycpu $end
$scope module regfile $end
$var reg 8 v \REGISTERS[5] [7:0] $end
$upscope $end
$upscope $end
$upscope $end
$scope module cpu_tb $end
$scope module mycpu $end
$scope module regfile $end
$var reg 8 w \REGISTERS[6] [7:0] $end
$upscope $end
$upscope $end
$upscope $end
$scope module cpu_tb $end
$scope module mycpu $end
$scope module regfile $end
$var reg 8 x \REGISTERS[7] [7:0] $end
$upscope $end
$upscope $end
$upscope $end
$enddefinitions $end
#0
$dumpvars
bx x
bx w
bx v
bx u
bx t
bx s
bx r
bx q
b100000000 p
0o
bx n
0m
bx l
bx k
bx j
bx i
bx h
bx g
bx f
bx e
bx d
bx c
bx b
bx a
bx `
bx _
bx ^
bx ]
bx \
bx [
bx Z
bx Y
bx X
bx W
bx V
bx U
bx T
bx S
bx R
bx Q
bx P
bx O
bx N
bx M
bx L
bx K
bx J
xI
bx H
bx G
bx F
bx E
bx D
bx C
bx B
bx A
bx @
x?
bx >
x=
bx <
x;
bx :
bx 9
bx 8
bx 7
bx 6
bx 5
bx 4
bx 3
x2
x1
bx 0
x/
x.
x-
bx ,
b1000 +
1*
bx )
1(
0'
bx &
x%
bx $
bx #
x"
bx !
$end
#1
b0 x
b0 w
b0 v
b0 u
b0 t
b0 s
b0 r
b0 q
b1000 j
b11111111111111111111111111111100 &
b11111111111111111111111111111100 C
#2
b0 7
b0 Y
b0 H
b0 W
b0 Z
0*
#4
0(
#8
1(
#9
b0 &
b0 C
#10
b100 7
b100 Y
b100 H
b100 W
b100 Z
#11
b100 >
b100 \
b100 a
b100 E
b100 i
b0 D
b0 g
b1 J
b1 e
b0 B
b1 A
b1 `
b0 F
b100 G
b100 Q
b10000000000000100 )
b10000000000000100 ,
b10000000000000100 O
#12
02
b100 9
b100 L
b100 S
1I
0.
0?
0;
1=
01
1/
b0 @
b0 K
b0 P
0"
0%
0(
#13
0-
b100 <
b100 _
b100 d
b0 :
b0 R
b0 V
b100 #
b100 3
b100 N
b100 ]
b100 k
b1000 8
b1000 X
b1000 [
b0 4
b0 U
b0 b
b0 h
b0 !
b0 5
b0 M
b0 f
b0 l
#14
b0 0
b0 T
b0 c
#16
1(
#17
b100 r
b100 &
b100 C
#18
b1000 7
b1000 Y
b1000 H
b1000 W
b1000 Z
#19
b1000 >
b1000 \
b1000 a
b101 9
b101 L
b101 S
b101 E
b101 i
b10 J
b10 e
b10 A
b10 `
b101 G
b101 Q
b100000000000000101 )
b100000000000000101 ,
b100000000000000101 O
#20
b101 <
b101 _
b101 d
b101 #
b101 3
b101 N
b101 ]
b101 k
0(
#21
b10000 8
b10000 X
b10000 [
#24
1(
#25
b101 s
b1000 &
b1000 C
#26
b1100 7
b1100 Y
b1100 H
b1100 W
b1100 Z
#27
b0 >
b0 \
b0 a
b1 9
b1 L
b1 S
b1 E
b1 i
b10 D
b10 g
b0 J
b0 e
b1011 B
b0 A
b0 `
b10 F
b1 G
b1 Q
b1011000000000000001000000001 )
b1011000000000000001000000001 ,
b1011000000000000001000000001 O
#28
b1 <
b1 _
b1 d
1o
1'
0I
b1 #
b1 3
b1 N
b1 ]
b1 k
1"
0/
0(
#29
b100 :
b100 R
b100 V
b1100 8
b1100 X
b1100 [
b100 4
b100 U
b100 b
b100 h
b101 !
b101 5
b101 M
b101 f
b101 l
#30
b11111100 0
b11111100 T
b11111100 c
#32
1(
#36
0(
#40
1(
#44
0(
#48
1(
#52
0(
#56
1(
#60
0(
#64
1(
#68
0(
#72
1(
0o
0'
#73
b1100 &
b1100 C
#74
b10000 7
b10000 Y
b10000 H
b10000 W
b10000 Z
#75
b1001 9
b1001 L
b1001 S
b1 D
b1 g
b1 F
b1001 G
b1001 Q
b1011000000000000000100001001 )
b1011000000000000000100001001 ,
b1011000000000000000100001001 O
#76
b1001 <
b1001 _
b1001 d
1o
1'
b1001 #
b1001 3
b1001 N
b1001 ]
b1001 k
1"
b10000 8
b10000 X
b10000 [
0(
#77
b100 !
b100 5
b100 M
b100 f
b100 l
#80
1(
#84
0(
#88
1(
#92
0(
#96
1(
#100
0(
#104
1(
#108
0(
#112
1(
#116
0(
#120
1(
0o
0'
#121
b10000 &
b10000 C
#122
b10100 7
b10100 Y
b10100 H
b10100 W
b10100 Z
#123
b10000 >
b10000 \
b10000 a
b1 9
b1 L
b1 S
b0 D
b0 g
b100 J
b100 e
b1001 B
b100 A
b100 `
b0 F
b1 G
b1 Q
b1001000001000000000000000001 )
b1001000001000000000000000001 ,
b1001000001000000000000000001 O
#124
bx <
bx _
bx d
1m
1'
b1 #
b1 3
b1 N
b1 ]
b1 k
1.
1%
1/
0"
0(
#125
b100100 8
b100100 X
b100100 [
b0 !
b0 5
b0 M
b0 f
b0 l
#128
1(
#132
0(
#136
1(
#140
0(
#144
1(
#148
0(
#152
1(
#156
0(
#160
1(
#164
0(
#168
1I
b101 <
b101 _
b101 d
1(
0m
0'
b101 $
b101 6
b101 ^
b101 n
#169
b101 u
b10100 &
b10100 C
#170
b11000 7
b11000 Y
b11000 H
b11000 W
b11000 Z
#171
b10100 >
b10100 \
b10100 a
b1001 9
b1001 L
b1001 S
b101 J
b101 e
b101 A
b101 `
b1001 G
b1001 Q
b1001000001010000000000001001 )
b1001000001010000000000001001 ,
b1001000001010000000000001001 O
#172
0I
1m
1'
b1001 #
b1001 3
b1001 N
b1001 ]
b1001 k
1%
0(
#173
b101100 8
b101100 X
b101100 [
#176
1(
#180
0(
#184
1(
#188
0(
#192
1(
#196
0(
#200
1(
#204
0(
#208
1(
#212
0(
#216
1I
b100 <
b100 _
b100 d
1(
0m
0'
b100 $
b100 6
b100 ^
b100 n
#217
b100 v
b11000 &
b11000 C
#218
b11100 7
b11100 Y
b11100 H
b11100 W
b11100 Z
#219
b0 >
b0 \
b0 a
b100 9
b100 L
b100 S
b100 E
b100 i
b101 D
b101 g
b0 J
b0 e
b10 B
b0 A
b0 `
b101 F
b100 G
b100 Q
b10000000000000010100000100 )
b10000000000000010100000100 ,
b10000000000000010100000100 O
#220
b100 #
b100 3
b100 N
b100 ]
b100 k
0.
0=
b1 @
b1 K
b1 P
0%
0(
#221
b101 9
b101 L
b101 S
b101 :
b101 R
b101 V
b11100 8
b11100 X
b11100 [
b101 4
b101 U
b101 b
b101 h
b100 !
b100 5
b100 M
b100 f
b100 l
#222
b11111011 0
b11111011 T
b11111011 c
#223
b1001 <
b1001 _
b1001 d
b1001 #
b1001 3
b1001 N
b1001 ]
b1001 k
#224
1(
#225
b1001 q
b11100 &
b11100 C
#226
b100000 7
b100000 Y
b100000 H
b100000 W
b100000 Z
#227
b11100 >
b11100 \
b11100 a
b1 E
b1 i
b0 D
b0 g
b111 J
b111 e
b0 B
b111 A
b111 `
b0 F
b1 G
b1 Q
b1110000000000000001 )
b1110000000000000001 ,
b1110000000000000001 O
#228
b1 9
b1 L
b1 S
1=
b0 @
b0 K
b0 P
0(
#229
b1 <
b1 _
b1 d
b100 :
b100 R
b100 V
b1 #
b1 3
b1 N
b1 ]
b1 k
b111100 8
b111100 X
b111100 [
b100 4
b100 U
b100 b
b100 h
b1001 !
b1001 5
b1001 M
b1001 f
b1001 l
#230
b11111100 0
b11111100 T
b11111100 c
#232
1(
#233
b1 x
b100000 &
b100000 C
#234
b100100 7
b100100 Y
b100100 H
b100100 W
b100100 Z
#235
b1100 >
b1100 \
b1100 a
b111 9
b111 L
b111 S
b111 E
b111 i
b11 J
b11 e
b1000 B
b11 A
b11 `
b111 G
b111 Q
b1000000000110000000000000111 )
b1000000000110000000000000111 ,
b1000000000110000000000000111 O
#236
0I
b100 <
b100 _
b100 d
1m
1'
b100 9
b100 L
b100 S
b111 #
b111 3
b111 N
b111 ]
b111 k
1.
1%
0=
0(
#237
b1 9
b1 L
b1 S
b1 :
b1 R
b1 V
b100 #
b100 3
b100 N
b100 ]
b100 k
b110000 8
b110000 X
b110000 [
b1 4
b1 U
b1 b
b1 h
#238
b1 #
b1 3
b1 N
b1 ]
b1 k
b11111111 0
b11111111 T
b11111111 c
#240
1(
#244
0(
#248
1(
#252
0(
#256
1(
#260
0(
#264
1(
#268
0(
#272
1(
#276
0(
#280
1I
b101 <
b101 _
b101 d
1(
0m
0'
b101 $
b101 6
b101 ^
b101 n
#281
b101 t
b100100 &
b100100 C
#282
b101000 7
b101000 Y
b101000 H
b101000 W
b101000 Z
#283
b0 >
b0 \
b0 a
b1 E
b1 i
b10 D
b10 g
b0 J
b0 e
b1010 B
b0 A
b0 `
b10 F
b1 G
b1 Q
b1010000000000000001000000001 )
b1010000000000000001000000001 ,
b1010000000000000001000000001 O
#284
b1 <
b1 _
b1 d
0I
1o
1'
0.
1"
0/
0%
0(
#285
b100 9
b100 L
b100 S
b100 :
b100 R
b100 V
b101000 8
b101000 X
b101000 [
b100 4
b100 U
b100 b
b100 h
b101 !
b101 5
b101 M
b101 f
b101 l
#286
b100 <
b100 _
b100 d
b11111100 0
b11111100 T
b11111100 c
b100 #
b100 3
b100 N
b100 ]
b100 k
#288
1(
#292
0(
#296
1(
#300
0(
#304
1(
#308
0(
#312
1(
#316
0(
#320
1(
#324
0(
#328
1(
0o
0'
#329
b101000 &
b101000 C
#330
b101100 7
b101100 Y
b101100 H
b101100 W
b101100 Z
#331
b11 D
b11 g
b1011 B
b11 F
b100001 G
b100001 Q
b1011000000000000001100100001 )
b1011000000000000001100100001 ,
b1011000000000000001100100001 O
#332
b100001 9
b100001 L
b100001 S
1o
1'
1=
1"
b101100 8
b101100 X
b101100 [
0(
#333
b100001 <
b100001 _
b100001 d
b100001 #
b100001 3
b100001 N
b100001 ]
b100001 k
#336
1(
#340
0(
#344
1(
#348
0(
#352
1(
#356
0(
#360
1(
#364
0(
#368
1(
#372
0(
#376
1(
0o
0'
#377
b101100 &
b101100 C
#378
b110000 7
b110000 Y
b110000 H
b110000 W
b110000 Z
#379
b1100 >
b1100 \
b1100 a
b0 9
b0 L
b0 S
b0 E
b0 i
b11 J
b11 e
b10 B
b11 A
b11 `
b0 G
b0 Q
b10000000110000001100000000 )
b10000000110000001100000000 ,
b10000000110000001100000000 O
#380
1-
b0 <
b0 _
b0 d
b100 9
b100 L
b100 S
1I
b0 #
b0 3
b0 N
b0 ]
b0 k
0=
1/
b1 @
b1 K
b1 P
0"
0(
#381
b1001 9
b1001 L
b1001 S
b1001 :
b1001 R
b1001 V
b111100 8
b111100 X
b111100 [
b1001 4
b1001 U
b1001 b
b1001 h
#382
0-
b1110 <
b1110 _
b1110 d
b11110111 0
b11110111 T
b11110111 c
b1110 #
b1110 3
b1110 N
b1110 ]
b1110 k
#384
1(
#385
b1110 t
b110000 &
b110000 C
#386
b110100 7
b110100 Y
b110100 H
b110100 W
b110100 Z
#387
b0 >
b0 \
b0 a
b1 E
b1 i
b0 D
b0 g
b0 J
b0 e
b0 B
b0 A
b0 `
b0 F
b1 G
b1 Q
b1110 !
b1110 5
b1110 M
b1110 f
b1110 l
b1 )
b1 ,
b1 O
#388
b1 9
b1 L
b1 S
1=
b0 @
b0 K
b0 P
0(
#389
b1010 <
b1010 _
b1010 d
b100 :
b100 R
b100 V
b110100 8
b110100 X
b110100 [
b1010 #
b1010 3
b1010 N
b1010 ]
b1010 k
b100 4
b100 U
b100 b
b100 h
b1001 !
b1001 5
b1001 M
b1001 f
b1001 l
#390
b11111100 0
b11111100 T
b11111100 c
#392
1(
#393
b1010 q
b110100 &
b110100 C
#394
b111000 7
b111000 Y
b111000 H
b111000 W
b111000 Z
#395
b10100 >
b10100 \
b10100 a
b0 9
b0 L
b0 S
b0 E
b0 i
b101 J
b101 e
b1000 B
b101 A
b101 `
b0 G
b0 Q
b1010 !
b1010 5
b1010 M
b1010 f
b1010 l
b1000000001010000000000000000 )
b1000000001010000000000000000 ,
b1000000001010000000000000000 O
#396
0I
1-
b101 <
b101 _
b101 d
1m
1'
b100 9
b100 L
b100 S
b0 #
b0 3
b0 N
b0 ]
b0 k
1.
1%
0=
0(
#397
b1010 9
b1010 L
b1010 S
0-
b1010 :
b1010 R
b1010 V
b100 #
b100 3
b100 N
b100 ]
b100 k
b1001100 8
b1001100 X
b1001100 [
b1010 4
b1010 U
b1010 b
b1010 h
#398
b1010 #
b1010 3
b1010 N
b1010 ]
b1010 k
b11110110 0
b11110110 T
b11110110 c
#400
1(
#404
0(
#408
1(
#412
0(
#416
1(
#420
0(
#424
1(
#428
0(
#432
1(
#436
0(
#440
1I
b0 <
b0 _
b0 d
1(
0m
0'
b0 $
b0 6
b0 ^
b0 n
#441
b0 v
b111000 &
b111000 C
#442
b111100 7
b111100 Y
b111100 H
b111100 W
b111100 Z
#443
b11100 >
b11100 \
b11100 a
b101 D
b101 g
b111 J
b111 e
b10 B
b111 A
b111 `
b101 F
b10000001110000010100000000 )
b10000001110000010100000000 ,
b10000001110000010100000000 O
#444
b1010 <
b1010 _
b1010 d
0.
b1 @
b1 K
b1 P
0%
0(
#445
b1011000 8
b1011000 X
b1011000 [
b0 !
b0 5
b0 M
b0 f
b0 l
#448
1(
#449
b1010 x
b111100 &
b111100 C
#450
b1000000 7
b1000000 Y
b1000000 H
b1000000 W
b1000000 Z
#451
bx00 >
bx00 \
bx00 a
bx E
bx i
bx D
bx g
bx J
bx e
bx B
bx A
bx `
bx F
bx G
bx Q
bx )
bx ,
bx O
#452
x-
bx <
bx _
bx d
0I
bx #
bx 3
bx N
bx ]
bx k
0/
bx @
bx K
bx P
0(
#453
bx 9
bx L
bx S
bx :
bx R
bx V
bx 8
bx X
bx [
bx 4
bx U
bx b
bx h
bx !
bx 5
bx M
bx f
bx l
#454
bx 0
bx T
bx c
#456
1(
#457
b1000000 &
b1000000 C
#458
b1000100 7
b1000100 Y
b1000100 H
b1000100 W
b1000100 Z
#460
0(
#464
1(
#465
b1000100 &
b1000100 C
#466
b1001000 7
b1001000 Y
b1001000 H
b1001000 W
b1001000 Z
#468
0(
#472
1(
#473
b1001000 &
b1001000 C
#474
b1001100 7
b1001100 Y
b1001100 H
b1001100 W
b1001100 Z
#476
0(
#480
1(
#481
b1001100 &
b1001100 C
#482
b1010000 7
b1010000 Y
b1010000 H
b1010000 W
b1010000 Z
#484
0(
#488
1(
#489
b1010000 &
b1010000 C
#490
b1010100 7
b1010100 Y
b1010100 H
b1010100 W
b1010100 Z
#492
0(
#496
1(
#497
b1010100 &
b1010100 C
#498
b1011000 7
b1011000 Y
b1011000 H
b1011000 W
b1011000 Z
#500
0(
#504
1(
#505
b1011000 &
b1011000 C
#506
b1011100 7
b1011100 Y
b1011100 H
b1011100 W
b1011100 Z
#508
0(
#512
1(
#513
b1011100 &
b1011100 C
#514
b1100000 7
b1100000 Y
b1100000 H
b1100000 W
b1100000 Z
#516
0(
#520
1(
#521
b1100000 &
b1100000 C
#522
b1100100 7
b1100100 Y
b1100100 H
b1100100 W
b1100100 Z
#524
0(
#528
1(
#529
b1100100 &
b1100100 C
#530
b1101000 7
b1101000 Y
b1101000 H
b1101000 W
b1101000 Z
#532
0(
#536
1(
#537
b1101000 &
b1101000 C
#538
b1101100 7
b1101100 Y
b1101100 H
b1101100 W
b1101100 Z
#540
0(
#544
1(
#545
b1101100 &
b1101100 C
#546
b1110000 7
b1110000 Y
b1110000 H
b1110000 W
b1110000 Z
#548
0(
#552
1(
#553
b1110000 &
b1110000 C
#554
b1110100 7
b1110100 Y
b1110100 H
b1110100 W
b1110100 Z
#556
0(
#560
1(
#561
b1110100 &
b1110100 C
#562
b1111000 7
b1111000 Y
b1111000 H
b1111000 W
b1111000 Z
#564
0(
#568
1(
#569
b1111000 &
b1111000 C
#570
b1111100 7
b1111100 Y
b1111100 H
b1111100 W
b1111100 Z
#572
0(
#576
1(
#577
b1111100 &
b1111100 C
#578
b10000000 7
b10000000 Y
b10000000 H
b10000000 W
b10000000 Z
#580
0(
#584
1(
#585
b10000000 &
b10000000 C
#586
b10000100 7
b10000100 Y
b10000100 H
b10000100 W
b10000100 Z
#588
0(
#592
1(
#593
b10000100 &
b10000100 C
#594
b10001000 7
b10001000 Y
b10001000 H
b10001000 W
b10001000 Z
#596
0(
#600
1(
#601
b10001000 &
b10001000 C
#602
b10001100 7
b10001100 Y
b10001100 H
b10001100 W
b10001100 Z
#604
0(
#608
1(
#609
b10001100 &
b10001100 C
#610
b10010000 7
b10010000 Y
b10010000 H
b10010000 W
b10010000 Z
#612
0(
#616
1(
#617
b10010000 &
b10010000 C
#618
b10010100 7
b10010100 Y
b10010100 H
b10010100 W
b10010100 Z
#620
0(
#624
1(
#625
b10010100 &
b10010100 C
#626
b10011000 7
b10011000 Y
b10011000 H
b10011000 W
b10011000 Z
#628
0(
#632
1(
#633
b10011000 &
b10011000 C
#634
b10011100 7
b10011100 Y
b10011100 H
b10011100 W
b10011100 Z
#636
0(
#640
1(
#641
b10011100 &
b10011100 C
#642
b10100000 7
b10100000 Y
b10100000 H
b10100000 W
b10100000 Z
#644
0(
#648
1(
#649
b10100000 &
b10100000 C
#650
b10100100 7
b10100100 Y
b10100100 H
b10100100 W
b10100100 Z
#652
0(
#656
1(
#657
b10100100 &
b10100100 C
#658
b10101000 7
b10101000 Y
b10101000 H
b10101000 W
b10101000 Z
#660
0(
#664
1(
#665
b10101000 &
b10101000 C
#666
b10101100 7
b10101100 Y
b10101100 H
b10101100 W
b10101100 Z
#668
0(
#672
1(
#673
b10101100 &
b10101100 C
#674
b10110000 7
b10110000 Y
b10110000 H
b10110000 W
b10110000 Z
#676
0(
#680
1(
#681
b10110000 &
b10110000 C
#682
b10110100 7
b10110100 Y
b10110100 H
b10110100 W
b10110100 Z
#684
0(
#688
1(
#689
b10110100 &
b10110100 C
#690
b10111000 7
b10111000 Y
b10111000 H
b10111000 W
b10111000 Z
#692
0(
#696
1(
#697
b10111000 &
b10111000 C
#698
b10111100 7
b10111100 Y
b10111100 H
b10111100 W
b10111100 Z
#700
0(
#704
1(
#705
b10111100 &
b10111100 C
#706
b11000000 7
b11000000 Y
b11000000 H
b11000000 W
b11000000 Z
#708
0(
#712
1(
#713
b11000000 &
b11000000 C
#714
b11000100 7
b11000100 Y
b11000100 H
b11000100 W
b11000100 Z
#716
0(
#720
1(
#721
b11000100 &
b11000100 C
#722
b11001000 7
b11001000 Y
b11001000 H
b11001000 W
b11001000 Z
#724
0(
#728
1(
#729
b11001000 &
b11001000 C
#730
b11001100 7
b11001100 Y
b11001100 H
b11001100 W
b11001100 Z
#732
0(
#736
1(
#737
b11001100 &
b11001100 C
#738
b11010000 7
b11010000 Y
b11010000 H
b11010000 W
b11010000 Z
#740
0(
#744
1(
#745
b11010000 &
b11010000 C
#746
b11010100 7
b11010100 Y
b11010100 H
b11010100 W
b11010100 Z
#748
0(
#752
1(
#753
b11010100 &
b11010100 C
#754
b11011000 7
b11011000 Y
b11011000 H
b11011000 W
b11011000 Z
#756
0(
#760
1(
#761
b11011000 &
b11011000 C
#762
b11011100 7
b11011100 Y
b11011100 H
b11011100 W
b11011100 Z
#764
0(
#768
1(
#769
b11011100 &
b11011100 C
#770
b11100000 7
b11100000 Y
b11100000 H
b11100000 W
b11100000 Z
#772
0(
#776
1(
#777
b11100000 &
b11100000 C
#778
b11100100 7
b11100100 Y
b11100100 H
b11100100 W
b11100100 Z
#780
0(
#784
1(
#785
b11100100 &
b11100100 C
#786
b11101000 7
b11101000 Y
b11101000 H
b11101000 W
b11101000 Z
#788
0(
#792
1(
#793
b11101000 &
b11101000 C
#794
b11101100 7
b11101100 Y
b11101100 H
b11101100 W
b11101100 Z
#796
0(
#800
1(
#801
b11101100 &
b11101100 C
#802
b11110000 7
b11110000 Y
b11110000 H
b11110000 W
b11110000 Z
#804
0(
#808
1(
#809
b11110000 &
b11110000 C
#810
b11110100 7
b11110100 Y
b11110100 H
b11110100 W
b11110100 Z
#812
0(
#816
1(
#817
b11110100 &
b11110100 C
#818
b11111000 7
b11111000 Y
b11111000 H
b11111000 W
b11111000 Z
#820
0(
#824
1(
#825
b11111000 &
b11111000 C
#826
b11111100 7
b11111100 Y
b11111100 H
b11111100 W
b11111100 Z
#828
0(
#832
1(
#833
b11111100 &
b11111100 C
#834
b100000000 7
b100000000 Y
b100000000 H
b100000000 W
b100000000 Z
#836
0(
#840
1(
#841
b100000000 &
b100000000 C
#842
b100000100 7
b100000100 Y
b100000100 H
b100000100 W
b100000100 Z
#844
0(
#848
1(
#849
b100000100 &
b100000100 C
#850
b100001000 7
b100001000 Y
b100001000 H
b100001000 W
b100001000 Z
#852
0(
#856
1(
#857
b100001000 &
b100001000 C
#858
b100001100 7
b100001100 Y
b100001100 H
b100001100 W
b100001100 Z
#860
0(
#864
1(
#865
b100001100 &
b100001100 C
#866
b100010000 7
b100010000 Y
b100010000 H
b100010000 W
b100010000 Z
#868
0(
#872
1(
#873
b100010000 &
b100010000 C
#874
b100010100 7
b100010100 Y
b100010100 H
b100010100 W
b100010100 Z
#876
0(
#880
1(
#881
b100010100 &
b100010100 C
#882
b100011000 7
b100011000 Y
b100011000 H
b100011000 W
b100011000 Z
#884
0(
#888
1(
#889
b100011000 &
b100011000 C
#890
b100011100 7
b100011100 Y
b100011100 H
b100011100 W
b100011100 Z
#892
0(
#896
1(
#897
b100011100 &
b100011100 C
#898
b100100000 7
b100100000 Y
b100100000 H
b100100000 W
b100100000 Z
#900
0(
#904
1(
#905
b100100000 &
b100100000 C
#906
b100100100 7
b100100100 Y
b100100100 H
b100100100 W
b100100100 Z
#908
0(
#912
1(
#913
b100100100 &
b100100100 C
#914
b100101000 7
b100101000 Y
b100101000 H
b100101000 W
b100101000 Z
#916
0(
#920
1(
#921
b100101000 &
b100101000 C
#922
b100101100 7
b100101100 Y
b100101100 H
b100101100 W
b100101100 Z
#924
0(
#928
1(
#929
b100101100 &
b100101100 C
#930
b100110000 7
b100110000 Y
b100110000 H
b100110000 W
b100110000 Z
#932
0(
#936
1(
#937
b100110000 &
b100110000 C
#938
b100110100 7
b100110100 Y
b100110100 H
b100110100 W
b100110100 Z
#940
0(
#944
1(
#945
b100110100 &
b100110100 C
#946
b100111000 7
b100111000 Y
b100111000 H
b100111000 W
b100111000 Z
#948
0(
#952
1(
#953
b100111000 &
b100111000 C
#954
b100111100 7
b100111100 Y
b100111100 H
b100111100 W
b100111100 Z
#956
0(
#960
1(
#961
b100111100 &
b100111100 C
#962
b101000000 7
b101000000 Y
b101000000 H
b101000000 W
b101000000 Z
#964
0(
#968
1(
#969
b101000000 &
b101000000 C
#970
b101000100 7
b101000100 Y
b101000100 H
b101000100 W
b101000100 Z
#972
0(
#976
1(
#977
b101000100 &
b101000100 C
#978
b101001000 7
b101001000 Y
b101001000 H
b101001000 W
b101001000 Z
#980
0(
#984
1(
#985
b101001000 &
b101001000 C
#986
b101001100 7
b101001100 Y
b101001100 H
b101001100 W
b101001100 Z
#988
0(
#992
1(
#993
b101001100 &
b101001100 C
#994
b101010000 7
b101010000 Y
b101010000 H
b101010000 W
b101010000 Z
#996
0(
#1000
1(
#1001
b101010000 &
b101010000 C
#1002
b101010100 7
b101010100 Y
b101010100 H
b101010100 W
b101010100 Z
