cpu/processor/e16076_lab5_part5/cpu_wavedata.vcd
$date
	Sun May 31 20:11:40 2020
$end
$version
	Icarus Verilog
$end
$timescale
	1s
$end
$scope module cpu_tb $end
$var wire 32 ! PC [31:0] $end
$var reg 1 " CLK $end
$var reg 32 # INSTRUCTION [31:0] $end
$var reg 1 $ RESET $end
$scope module mycpu $end
$var wire 1 " CLK $end
$var wire 32 % INSTRUCTION [31:0] $end
$var wire 1 $ RESET $end
$var wire 1 & ZERO $end
$var wire 1 ' WRITEENABLE $end
$var wire 8 ( WRITEDATA [7:0] $end
$var wire 8 ) TWOSCOMP [7:0] $end
$var wire 1 * SUBMUXSEL $end
$var wire 3 + SHIFT_SEL [2:0] $end
$var wire 8 , SHIFTED [7:0] $end
$var wire 1 - SHIFT $end
$var wire 1 . SEL $end
$var wire 8 / RESULT [7:0] $end
$var wire 8 0 REGOUT2 [7:0] $end
$var wire 8 1 REGOUT1 [7:0] $end
$var wire 32 2 PCOUT [31:0] $end
$var wire 32 3 PCIN [31:0] $end
$var wire 8 4 OPERAND1 [7:0] $end
$var wire 8 5 NONIMMEDIATE [7:0] $end
$var wire 1 6 JUMP $end
$var wire 1 7 IMMUXSEL $end
$var wire 32 8 EXTNDED_SHIFT [31:0] $end
$var wire 1 9 BNE $end
$var wire 1 : BEQ $end
$var wire 3 ; ALUOP [2:0] $end
$var reg 8 < DESTINATION [7:0] $end
$var reg 8 = OPCODE [7:0] $end
$var reg 32 > PC [31:0] $end
$var reg 3 ? READREG1 [2:0] $end
$var reg 3 @ READREG2 [2:0] $end
$var reg 8 A SOURCE1 [7:0] $end
$var reg 8 B SOURCE2 [7:0] $end
$var reg 32 C STORE [31:0] $end
$var reg 3 D WRITEREG [2:0] $end
$scope module alupart $end
$var wire 1 & ZERO $end
$var wire 3 E SELECT [0:2] $end
$var wire 8 F DATA2 [0:7] $end
$var wire 8 G DATA1 [0:7] $end
$var reg 8 H RESULT [0:7] $end
$upscope $end
$scope module control $end
$var wire 8 I OPCODE [7:0] $end
$var reg 3 J ALUOP [2:0] $end
$var reg 1 : BEQ $end
$var reg 1 9 BNE $end
$var reg 1 7 IMMUXSEL $end
$var reg 1 6 JUMP $end
$var reg 1 - SHIFT $end
$var reg 3 K SHIFT_SEL [2:0] $end
$var reg 1 * SUBMUXSEL $end
$var reg 1 ' WRITEENABLE $end
$upscope $end
$scope module muximmediate $end
$var wire 8 L IMMEDIATE [7:0] $end
$var wire 1 7 IMMUXSEL $end
$var wire 8 M NONIMMEDIATE [7:0] $end
$var reg 8 N OPERAND1 [7:0] $end
$upscope $end
$scope module muxsubtract $end
$var wire 1 * SUBMUXSEL $end
$var wire 8 O TWOSCOMP [7:0] $end
$var wire 8 P REGOUT2 [7:0] $end
$var reg 8 Q NONIMMEDIATE [7:0] $end
$upscope $end
$scope module myMUXPC $end
$var wire 32 R STORE [31:0] $end
$var wire 1 . SEL $end
$var wire 32 S PCIN [31:0] $end
$var reg 32 T PCOUT [31:0] $end
$upscope $end
$scope module myadder $end
$var wire 32 U STORE [31:0] $end
$var wire 32 V PCIN [31:0] $end
$var wire 32 W EXTNDED_SHIFT [31:0] $end
$upscope $end
$scope module mymux_shift $end
$var wire 8 X RESULT [7:0] $end
$var wire 1 - SHIFT $end
$var wire 8 Y SHIFTED [7:0] $end
$var reg 8 Z WRITEDATA [7:0] $end
$upscope $end
$scope module mypc_selection $end
$var wire 1 : BEQ $end
$var wire 1 9 BNE $end
$var wire 1 6 JUMP $end
$var wire 1 . SEL $end
$var wire 1 & ZERO $end
$upscope $end
$scope module myseas $end
$var wire 8 [ UNEXTENDED [7:0] $end
$var reg 32 \ EXTNDED_SHIFT [31:0] $end
$upscope $end
$scope module myshift_unit $end
$var wire 8 ] OPERAND1 [7:0] $end
$var wire 3 ^ SHIFT_SEL [2:0] $end
$var wire 8 _ REGOUT1 [7:0] $end
$var reg 8 ` SHIFTED [7:0] $end
$upscope $end
$scope module mytwoscomplement $end
$var wire 8 a REGOUT2 [7:0] $end
$var reg 8 b TWOSCOMP [7:0] $end
$upscope $end
$scope module regfile $end
$var wire 1 " CLK $end
$var wire 8 c IN [7:0] $end
$var wire 3 d INADDRESS [2:0] $end
$var wire 8 e OUT1 [7:0] $end
$var wire 3 f OUT1ADDRESS [2:0] $end
$var wire 8 g OUT2 [7:0] $end
$var wire 3 h OUT2ADDRESS [2:0] $end
$var wire 1 $ RESET $end
$var wire 1 ' WRITE $end
$var integer 32 i i [31:0] $end
$upscope $end
$upscope $end
$upscope $end
$enddefinitions $end
#0
$dumpvars
bx i
bx h
bx g
bx f
bx e
bx d
bx c
bx b
bx a
bx `
bx _
bx ^
bx ]
bx \
bx [
bx Z
bx Y
bx X
bx W
bx V
bx U
bx T
bx S
bx R
bx Q
bx P
bx O
bx N
bx M
bx L
bx K
bx J
bx I
bx H
bx G
bx F
bx E
bx D
bx C
bx B
bx A
bx @
bx ?
bx >
bx =
bx <
bx ;
x:
x9
bx 8
x7
x6
bx 5
bx 4
bx 3
bx 2
bx 1
bx 0
bx /
x.
x-
bx ,
bx +
x*
bx )
bx (
x'
x&
bx %
1$
bx #
1"
bx !
$end
#1
b11111111111111111111111111111100 !
b11111111111111111111111111111100 >
#2
b1000 i
0$
#3
b0 2
b0 T
b0 C
b0 R
b0 U
#5
0"
#10
1"
#11
b0 !
b0 >
#13
b100 8
b100 W
b100 \
b100 2
b100 T
b101 @
b101 h
b0 ?
b0 f
b1 D
b1 d
b0 =
b0 I
b1 <
b1 [
b0 A
b101 B
b101 L
b100 C
b100 R
b100 U
b10000000000000101 #
b10000000000000101 %
#14
0.
b101 4
b101 F
b101 N
b101 ]
0-
09
0:
06
17
0*
1'
b0 ;
b0 E
b0 J
#15
0&
b101 (
b101 Z
b101 c
b0 5
b0 M
b0 Q
b0 )
b0 O
b0 b
b101 /
b101 H
b101 X
b1000 3
b1000 S
b1000 V
b0 0
b0 P
b0 a
b0 g
b0 1
b0 G
b0 _
b0 e
0"
#20
1"
#21
b100 !
b100 >
#23
b1000 8
b1000 W
b1000 \
b1 4
b1 F
b1 N
b1 ]
b1 @
b1 h
b10 D
b10 d
b1 =
b1 I
b10 <
b10 [
b1 B
b1 L
b1000 2
b1000 T
b1000000100000000000000001 #
b1000000100000000000000001 %
b1000 C
b1000 R
b1000 U
#24
b1 (
b1 Z
b1 c
b0 4
b0 F
b0 N
b0 ]
b1 /
b1 H
b1 X
07
#25
b101 4
b101 F
b101 N
b101 ]
1&
b0 (
b0 Z
b0 c
b101 5
b101 M
b101 Q
b11111011 )
b11111011 O
b11111011 b
b0 /
b0 H
b0 X
b101 0
b101 P
b101 a
b101 g
b10000 3
b10000 S
b10000 V
0"
#26
0&
b101 (
b101 Z
b101 c
b101 /
b101 H
b101 X
#30
1"
#31
b1000 !
b1000 >
#33
b1100 8
b1100 W
b1100 \
b1100 2
b1100 T
b0 @
b0 h
b11 D
b11 d
b110 =
b110 I
b11 <
b11 [
b0 B
b0 L
b1100 C
b1100 R
b1100 U
b110000000110000000000000000 #
b110000000110000000000000000 %
#34
b10000 2
b10000 T
1.
x&
bx (
bx Z
bx c
bx /
bx H
bx X
16
0'
bx ;
bx E
bx J
#35
b0 4
b0 F
b0 N
b0 ]
b0 5
b0 M
b0 Q
b0 )
b0 O
b0 b
b11000 2
b11000 T
b0 0
b0 P
b0 a
b0 g
b11000 3
b11000 S
b11000 V
0"
#40
1"
#41
b11000 !
b11000 >
#42
1$
#43
b100 @
b100 h
b0 =
b0 I
b100 B
b100 L
b11111111111111111111111111111100 !
b11111111111111111111111111111100 >
b110000000000000100 #
b110000000000000100 %
b11100 C
b11100 R
b11100 U
#44
b11100 2
b11100 T
0.
b100 4
b100 F
b100 N
b100 ]
06
17
1'
b0 ;
b0 E
b0 J
b1000 i
0$
#45
bx00 8
bx00 W
bx00 \
bx 4
bx F
bx N
bx ]
0&
b100 (
b100 Z
b100 c
bx @
bx h
bx ?
bx f
bx D
bx d
bx =
bx I
bx <
bx [
bx A
bx B
bx L
b0 2
b0 T
b100 /
b100 H
b100 X
b0 C
b0 R
b0 U
bx #
bx %
b101000 3
b101000 S
b101000 V
0"
#46
x&
bx (
bx Z
bx c
b0 4
b0 F
b0 N
b0 ]
bx /
bx H
bx X
07
0'
bx ;
bx E
bx J
#47
bx 4
bx F
bx N
bx ]
bx 5
bx M
bx Q
bx )
bx O
bx b
bx 0
bx P
bx a
bx g
bx 1
bx G
bx _
bx e
bx 3
bx S
bx V
#50
1"
#51
b0 !
b0 >
#53
b100 8
b100 W
b100 \
b101 @
b101 h
b0 ?
b0 f
b1 D
b1 d
b0 =
b0 I
b1 <
b1 [
b0 A
b101 B
b101 L
b100 2
b100 T
b10000000000000101 #
b10000000000000101 %
b100 C
b100 R
b100 U
#54
b101 4
b101 F
b101 N
b101 ]
17
1'
b0 ;
b0 E
b0 J
#55
0&
b101 (
b101 Z
b101 c
b0 5
b0 M
b0 Q
b0 )
b0 O
b0 b
b101 /
b101 H
b101 X
b1000 3
b1000 S
b1000 V
b0 0
b0 P
b0 a
b0 g
b0 1
b0 G
b0 _
b0 e
0"
#60
1"
#61
b100 !
b100 >
#63
b1000 8
b1000 W
b1000 \
b1 4
b1 F
b1 N
b1 ]
b1000 2
b1000 T
b1 @
b1 h
b10 D
b10 d
b1 =
b1 I
b10 <
b10 [
b1 B
b1 L
b1000 C
b1000 R
b1000 U
b1000000100000000000000001 #
b1000000100000000000000001 %
#64
b1 (
b1 Z
b1 c
b0 4
b0 F
b0 N
b0 ]
b1 /
b1 H
b1 X
07
#65
b101 4
b101 F
b101 N
b101 ]
1&
b0 (
b0 Z
b0 c
b101 5
b101 M
b101 Q
b11111011 )
b11111011 O
b11111011 b
b0 /
b0 H
b0 X
b101 0
b101 P
b101 a
b101 g
b10000 3
b10000 S
b10000 V
0"
#66
0&
b101 (
b101 Z
b101 c
b101 /
b101 H
b101 X
#70
1"
#71
b1000 !
b1000 >
#73
b1100 8
b1100 W
b1100 \
b0 @
b0 h
b11 D
b11 d
b110 =
b110 I
b11 <
b11 [
b0 B
b0 L
b1100 2
b1100 T
b110000000110000000000000000 #
b110000000110000000000000000 %
b1100 C
b1100 R
b1100 U
#74
b10000 2
b10000 T
1.
x&
bx (
bx Z
bx c
bx /
bx H
bx X
16
0'
bx ;
bx E
bx J
#75
b0 4
b0 F
b0 N
b0 ]
b0 5
b0 M
b0 Q
b0 )
b0 O
b0 b
b11000 2
b11000 T
b0 0
b0 P
b0 a
b0 g
b11000 3
b11000 S
b11000 V
0"
#80
1"
#81
b11000 !
b11000 >
#83
b100 @
b100 h
b0 =
b0 I
b100 B
b100 L
b11100 C
b11100 R
b11100 U
b110000000000000100 #
b110000000000000100 %
#84
b11100 2
b11100 T
0.
b100 4
b100 F
b100 N
b100 ]
06
17
1'
b0 ;
b0 E
b0 J
#85
0&
b100 (
b100 Z
b100 c
b100 /
b100 H
b100 X
b101000 3
b101000 S
b101000 V
0"
#90
1"
#91
b11100 !
b11100 >
#93
b10000 8
b10000 W
b10000 \
b100 D
b100 d
b100 <
b100 [
b100000 2
b100000 T
b1000000000000000100 #
b1000000000000000100 %
b100000 C
b100000 R
b100000 U
#95
b110000 3
b110000 S
b110000 V
0"
#100
1"
#101
b100000 !
b100000 >
#103
b11111111111111111111111111101100 8
b11111111111111111111111111101100 W
b11111111111111111111111111101100 \
b100100 2
b100100 T
b11 ?
b11 f
b11 D
b11 d
b111 =
b111 I
b11111011 <
b11111011 [
b11 A
b100100 C
b100100 R
b100100 U
b111111110110000001100000100 #
b111111110110000001100000100 %
#104
b11111100 4
b11111100 F
b11111100 N
b11111100 ]
b11111100 5
b11111100 M
b11111100 Q
b11111100 )
b11111100 O
b11111100 b
1:
07
1*
0'
b1 ;
b1 E
b1 J
b100 0
b100 P
b100 a
b100 g
#105
b100 1
b100 G
b100 _
b100 e
b10000 3
b10000 S
b10000 V
0"
#106
b10000 2
b10000 T
1.
1&
b0 (
b0 Z
b0 c
b0 /
b0 H
b0 X
#110
1"
#111
b10000 !
b10000 >
#113
b11000 8
b11000 W
b11000 \
b10 @
b10 h
b1 ?
b1 f
b110 D
b110 d
b100 =
b100 I
b110 <
b110 [
b1 A
b10 B
b10 L
b100000001100000000100000010 #
b100000001100000000100000010 %
b10100 C
b10100 R
b10100 U
#114
b10100 2
b10100 T
0.
b100 4
b100 F
b100 N
b100 ]
b100 5
b100 M
b100 Q
0:
0*
1'
b10 ;
b10 E
b10 J
#115
b101 4
b101 F
b101 N
b101 ]
0&
b100 (
b100 Z
b100 c
b101 5
b101 M
b101 Q
b11111011 )
b11111011 O
b11111011 b
b100 /
b100 H
b100 X
b101 0
b101 P
b101 a
b101 g
b101 1
b101 G
b101 _
b101 e
b101100 3
b101100 S
b101100 V
0"
#116
b101 (
b101 Z
b101 c
b101 /
b101 H
b101 X
#120
1"
#121
b10100 !
b10100 >
#123
b1100 8
b1100 W
b1100 \
b11000 2
b11000 T
b11 @
b11 h
b11 D
b11 d
b111 =
b111 I
b11 <
b11 [
b11 B
b11 L
b11000 C
b11000 R
b11000 U
b111000000110000000100000011 #
b111000000110000000100000011 %
#124
b11111011 4
b11111011 F
b11111011 N
b11111011 ]
b11111011 5
b11111011 M
b11111011 Q
1:
1*
0'
b1 ;
b1 E
b1 J
#125
b11111100 4
b11111100 F
b11111100 N
b11111100 ]
b11111100 5
b11111100 M
b11111100 Q
b11111100 )
b11111100 O
b11111100 b
b100 0
b100 P
b100 a
b100 g
b100100 3
b100100 S
b100100 V
0"
#126
b1 (
b1 Z
b1 c
b1 /
b1 H
b1 X
#130
1"
#131
b11000 !
b11000 >
#133
b100 @
b100 h
b0 ?
b0 f
b0 =
b0 I
b0 A
b100 B
b100 L
b11100 2
b11100 T
b110000000000000100 #
b110000000000000100 %
b11100 C
b11100 R
b11100 U
#134
b100 4
b100 F
b100 N
b100 ]
b100 5
b100 M
b100 Q
0:
17
0*
1'
b0 ;
b0 E
b0 J
#135
b100 (
b100 Z
b100 c
b100 /
b100 H
b100 X
b0 1
b0 G
b0 _
b0 e
b101000 3
b101000 S
b101000 V
0"
#140
1"
#141
b11100 !
b11100 >
#143
b10000 8
b10000 W
b10000 \
b100000 2
b100000 T
b100 D
b100 d
b100 <
b100 [
b100000 C
b100000 R
b100000 U
b1000000000000000100 #
b1000000000000000100 %
#145
b110000 3
b110000 S
b110000 V
0"
#150
1"
#151
b100000 !
b100000 >
#153
b11111111111111111111111111101100 8
b11111111111111111111111111101100 W
b11111111111111111111111111101100 \
b11 ?
b11 f
b11 D
b11 d
b111 =
b111 I
b11111011 <
b11111011 [
b11 A
b100100 2
b100100 T
b111111110110000001100000100 #
b111111110110000001100000100 %
b100100 C
b100100 R
b100100 U
#154
b11111100 4
b11111100 F
b11111100 N
b11111100 ]
b11111100 5
b11111100 M
b11111100 Q
1:
07
1*
0'
b1 ;
b1 E
b1 J
#155
b100 1
b100 G
b100 _
b100 e
b10000 3
b10000 S
b10000 V
0"
#156
b10000 2
b10000 T
1.
1&
b0 (
b0 Z
b0 c
b0 /
b0 H
b0 X
#160
1"
#161
b10000 !
b10000 >
#163
b11000 8
b11000 W
b11000 \
b10 @
b10 h
b1 ?
b1 f
b110 D
b110 d
b100 =
b100 I
b110 <
b110 [
b1 A
b10 B
b10 L
b10100 C
b10100 R
b10100 U
b100000001100000000100000010 #
b100000001100000000100000010 %
#164
b10100 2
b10100 T
0.
b100 4
b100 F
b100 N
b100 ]
b100 5
b100 M
b100 Q
0:
0*
1'
b10 ;
b10 E
b10 J
#165
b101 4
b101 F
b101 N
b101 ]
0&
b100 (
b100 Z
b100 c
b101 5
b101 M
b101 Q
b11111011 )
b11111011 O
b11111011 b
b100 /
b100 H
b100 X
b101 0
b101 P
b101 a
b101 g
b101 1
b101 G
b101 _
b101 e
b101100 3
b101100 S
b101100 V
0"
#166
b101 (
b101 Z
b101 c
b101 /
b101 H
b101 X
#170
1"
#171
b10100 !
b10100 >
#173
b1100 8
b1100 W
b1100 \
b11 @
b11 h
b11 D
b11 d
b111 =
b111 I
b11 <
b11 [
b11 B
b11 L
b11000 2
b11000 T
b111000000110000000100000011 #
b111000000110000000100000011 %
b11000 C
b11000 R
b11000 U
#174
b11111011 4
b11111011 F
b11111011 N
b11111011 ]
b11111011 5
b11111011 M
b11111011 Q
1:
1*
0'
b1 ;
b1 E
b1 J
#175
b11111100 4
b11111100 F
b11111100 N
b11111100 ]
b11111100 5
b11111100 M
b11111100 Q
b11111100 )
b11111100 O
b11111100 b
b100 0
b100 P
b100 a
b100 g
b100100 3
b100100 S
b100100 V
0"
#176
b1 (
b1 Z
b1 c
b1 /
b1 H
b1 X
#180
1"
#181
b11000 !
b11000 >
#183
b11100 2
b11100 T
b100 @
b100 h
b0 ?
b0 f
b0 =
b0 I
b0 A
b100 B
b100 L
b11100 C
b11100 R
b11100 U
b110000000000000100 #
b110000000000000100 %
#184
b100 4
b100 F
b100 N
b100 ]
b100 5
b100 M
b100 Q
0:
17
0*
1'
b0 ;
b0 E
b0 J
