cpu/instructionCacheMemory/cpu_wavedata.vcd
$date
	Sun Jun 21 17:23:06 2020
$end
$version
	Icarus Verilog
$end
$timescale
	100ps
$end
$scope module cpu_tb $end
$var wire 8 ! WRITEDATA [7:0] $end
$var wire 1 " WRITE $end
$var wire 8 # RESULT [7:0] $end
$var wire 8 $ READDATA [7:0] $end
$var wire 1 % READ $end
$var wire 32 & PC [31:0] $end
$var wire 32 ' MEM_WRITEDATA [31:0] $end
$var wire 1 ( MEM_WRITE $end
$var wire 32 ) MEM_READDATA [31:0] $end
$var wire 1 * MEM_READ $end
$var wire 1 + MEM_BUSTWAIT $end
$var wire 6 , MEM_ADDRESS [5:0] $end
$var wire 32 - INSTRUCTION [31:0] $end
$var wire 128 . IMEM_READDATA [127:0] $end
$var wire 1 / IMEM_READ $end
$var wire 6 0 IMEM_ADDRESS [5:0] $end
$var wire 1 1 IMEME_BUSYWAIT $end
$var wire 1 2 IBUSYWAIT $end
$var wire 1 3 BUSYWAIT $end
$var reg 1 4 CLK $end
$var reg 1 5 RESET $end
$scope module mycpu $end
$var wire 1 4 CLK $end
$var wire 1 5 RESET $end
$var wire 1 6 ZERO $end
$var wire 1 7 WRITESEL $end
$var wire 1 8 WRITEENABLE $end
$var wire 1 " WRITE $end
$var wire 8 9 TWOSCOMP [7:0] $end
$var wire 1 : SUBMUXSEL $end
$var wire 1 ; SEL $end
$var wire 8 < RESULT [7:0] $end
$var wire 8 = REGOUT2 [7:0] $end
$var wire 8 > REGOUT1 [7:0] $end
$var wire 8 ? READDATA [7:0] $end
$var wire 1 % READ $end
$var wire 32 @ PCOUT [31:0] $end
$var wire 32 A PCIN [31:0] $end
$var wire 8 B OPERAND1 [7:0] $end
$var wire 8 C NONIMMEDIATE [7:0] $end
$var wire 1 D JUMP $end
$var wire 32 E INSTRUCTION [31:0] $end
$var wire 8 F IN [7:0] $end
$var wire 1 G IMMUXSEL $end
$var wire 1 2 IBUSYWAIT $end
$var wire 32 H EXTNDED_SHIFT [31:0] $end
$var wire 1 3 BUSYWAIT $end
$var wire 1 I BEQ $end
$var wire 3 J ALUOP [2:0] $end
$var reg 8 K DESTINATION [7:0] $end
$var reg 8 L OPCODE [7:0] $end
$var reg 32 M PC [31:0] $end
$var reg 3 N READREG1 [2:0] $end
$var reg 3 O READREG2 [2:0] $end
$var reg 8 P SOURCE1 [7:0] $end
$var reg 8 Q SOURCE2 [7:0] $end
$var reg 32 R STORE [31:0] $end
$var reg 1 S TEMP $end
$var reg 3 T WRITEREG [2:0] $end
$scope module alupart $end
$var wire 1 6 ZERO $end
$var wire 3 U SELECT [0:2] $end
$var wire 8 V DATA2 [0:7] $end
$var wire 8 W DATA1 [0:7] $end
$var reg 8 X RESULT [0:7] $end
$upscope $end
$scope module control $end
$var wire 32 Y INSTRUCTION [31:0] $end
$var reg 3 Z ALUOP [2:0] $end
$var reg 1 I BEQ $end
$var reg 1 G IMMUXSEL $end
$var reg 1 D JUMP $end
$var reg 1 % READ $end
$var reg 1 : SUBMUXSEL $end
$var reg 1 " WRITE $end
$var reg 1 8 WRITEENABLE $end
$var reg 1 7 WRITESEL $end
$upscope $end
$scope module muximmediate $end
$var wire 8 [ IMMEDIATE [7:0] $end
$var wire 1 G IMMUXSEL $end
$var wire 8 \ NONIMMEDIATE [7:0] $end
$var reg 8 ] OPERAND1 [7:0] $end
$upscope $end
$scope module muxsubtract $end
$var wire 1 : SUBMUXSEL $end
$var wire 8 ^ TWOSCOMP [7:0] $end
$var wire 8 _ REGOUT2 [7:0] $end
$var reg 8 ` NONIMMEDIATE [7:0] $end
$upscope $end
$scope module myMUXPC $end
$var wire 32 a STORE [31:0] $end
$var wire 1 ; SEL $end
$var wire 32 b PCIN [31:0] $end
$var reg 32 c PCOUT [31:0] $end
$upscope $end
$scope module myadder $end
$var wire 32 d STORE [31:0] $end
$var wire 32 e PCIN [31:0] $end
$var wire 32 f EXTNDED_SHIFT [31:0] $end
$upscope $end
$scope module mymuxreg $end
$var wire 8 g RESULT [7:0] $end
$var wire 1 7 WRITESEL $end
$var wire 8 h READDATA [7:0] $end
$var reg 8 i IN [7:0] $end
$upscope $end
$scope module mypc_selection $end
$var wire 1 I BEQ $end
$var wire 1 D JUMP $end
$var wire 1 ; SEL $end
$var wire 1 6 ZERO $end
$upscope $end
$scope module myseas $end
$var wire 8 j UNEXTENDED [7:0] $end
$var reg 32 k EXTNDED_SHIFT [31:0] $end
$upscope $end
$scope module mytwoscomplement $end
$var wire 8 l REGOUT2 [7:0] $end
$var reg 8 m TWOSCOMP [7:0] $end
$upscope $end
$scope module regfile $end
$var wire 1 4 CLK $end
$var wire 8 n IN [7:0] $end
$var wire 3 o INADDRESS [2:0] $end
$var wire 8 p OUT1 [7:0] $end
$var wire 3 q OUT1ADDRESS [2:0] $end
$var wire 8 r OUT2 [7:0] $end
$var wire 3 s OUT2ADDRESS [2:0] $end
$var wire 1 5 RESET $end
$var wire 1 S WRITE $end
$var integer 32 t i [31:0] $end
$upscope $end
$upscope $end
$scope module mydatacache $end
$var wire 8 u address [7:0] $end
$var wire 1 4 clock $end
$var wire 32 v data [31:0] $end
$var wire 1 w dirty $end
$var wire 1 x hit $end
$var wire 1 % read $end
$var wire 1 5 reset $end
$var wire 3 y tag [2:0] $end
$var wire 1 z valid $end
$var wire 1 " write $end
$var wire 8 { writedata [7:0] $end
$var wire 32 | mem_readdata [31:0] $end
$var wire 1 + mem_busywait $end
$var reg 1 3 busywait $end
$var reg 6 } mem_address [5:0] $end
$var reg 1 * mem_read $end
$var reg 1 ( mem_write $end
$var reg 32 ~ mem_writedata [31:0] $end
$var reg 3 !" next_state [2:0] $end
$var reg 8 "" readdata [7:0] $end
$var reg 3 #" state [2:0] $end
$var reg 1 $" tagCompared $end
$var integer 32 %" i [31:0] $end
$upscope $end
$scope module mydatamemory $end
$var wire 6 &" address [5:0] $end
$var wire 1 4 clock $end
$var wire 1 * read $end
$var wire 1 5 reset $end
$var wire 1 ( write $end
$var wire 32 '" writedata [31:0] $end
$var reg 1 + busywait $end
$var reg 1 (" readaccess $end
$var reg 32 )" readdata [31:0] $end
$var reg 1 *" writeaccess $end
$var integer 32 +" i [31:0] $end
$upscope $end
$scope module myicache $end
$var wire 10 ," address [9:0] $end
$var wire 1 4 clock $end
$var wire 128 -" data [127:0] $end
$var wire 1 ." hit $end
$var wire 1 5 reset $end
$var wire 3 /" tag [2:0] $end
$var wire 1 0" valid $end
$var wire 128 1" mem_readdata [127:0] $end
$var wire 1 1 mem_busywait $end
$var reg 1 2 busywait $end
$var reg 32 2" instruction [31:0] $end
$var reg 6 3" mem_address [5:0] $end
$var reg 1 / mem_read $end
$var reg 2 4" next_state [1:0] $end
$var reg 2 5" state [1:0] $end
$var reg 1 6" tagCompared $end
$var integer 32 7" i [31:0] $end
$upscope $end
$scope module myinstruction_memory $end
$var wire 6 8" address [5:0] $end
$var wire 1 4 clock $end
$var wire 1 / read $end
$var reg 1 1 busywait $end
$var reg 1 9" readaccess $end
$var reg 128 :" readdata [127:0] $end
$upscope $end
$upscope $end
$enddefinitions $end
#0
$dumpvars
bx :"
09"
bx 8"
b1000 7"
x6"
b0 5"
b0 4"
bx 3"
bx 2"
bx 1"
x0"
bx /"
x."
bx -"
bx ,"
b100000000 +"
0*"
bx )"
0("
bx '"
bx &"
b1000 %"
x$"
b0 #"
bx ""
b0 !"
bx ~
bx }
bx |
bx {
xz
bx y
xx
xw
bx v
bx u
bx t
bx s
bx r
bx q
bx p
bx o
bx n
bx m
bx l
bx k
bx j
bx i
bx h
bx g
bx f
bx e
bx d
bx c
bx b
bx a
bx `
bx _
bx ^
bx ]
bx \
bx [
bx Z
bx Y
bx X
bx W
bx V
bx U
bx T
xS
bx R
bx Q
bx P
bx O
bx N
bx M
bx L
bx K
bx J
xI
bx H
xG
bx F
bx E
xD
bx C
bx B
bx A
bx @
bx ?
bx >
bx =
bx <
x;
x:
bx 9
x8
x7
x6
15
14
03
02
01
bx 0
0/
bx .
bx -
bx ,
0+
0*
bx )
0(
bx '
bx &
x%
bx $
bx #
x"
bx !
$end
#10
b1111111100 ,"
b1000 t
b11111111111111111111111111111100 &
b11111111111111111111111111111100 M
#19
0."
06"
#20
b0 @
b0 c
00"
b0 R
b0 a
b0 d
05
#40
04
#80
14
#90
0S
b1 4"
12
b0 ,"
b0 &
b0 M
#100
b100 @
b100 c
b100 R
b100 a
b100 d
#120
04
#160
19"
11
b0 0
b0 3"
b0 8"
1/
b1 4"
b1 5"
14
#200
04
#240
14
#280
04
#320
14
#360
04
#400
14
#440
04
#480
14
#520
04
#560
14
#600
04
#640
14
bx00000010 .
bx00000010 1"
bx00000010 :"
#680
04
#720
14
#760
04
#800
14
#840
04
#880
14
#920
04
#960
14
#1000
04
#1040
14
bx0000000000000010 .
bx0000000000000010 1"
bx0000000000000010 :"
#1080
04
#1120
14
#1160
04
#1200
14
#1240
04
#1280
14
#1320
04
#1360
14
#1400
04
#1440
14
bx000000010000000000000010 .
bx000000010000000000000010 1"
bx000000010000000000000010 :"
#1480
04
#1520
14
#1560
04
#1600
14
#1640
04
#1680
14
#1720
04
#1760
14
#1800
04
#1840
14
bx00000000000000010000000000000010 .
bx00000000000000010000000000000010 1"
bx00000000000000010000000000000010 :"
#1880
04
#1920
14
#1960
04
#2000
14
#2040
04
#2080
14
#2120
04
#2160
14
#2200
04
#2240
14
bx0000000100000000000000010000000000000010 .
bx0000000100000000000000010000000000000010 1"
bx0000000100000000000000010000000000000010 :"
#2280
04
#2320
14
#2360
04
#2400
14
#2440
04
#2480
14
#2520
04
#2560
14
#2600
04
#2640
14
bx000000000000000100000000000000010000000000000010 .
bx000000000000000100000000000000010000000000000010 1"
bx000000000000000100000000000000010000000000000010 :"
#2680
04
#2720
14
#2760
04
#2800
14
#2840
04
#2880
14
#2920
04
#2960
14
#3000
04
#3040
14
bx00000010000000000000000100000000000000010000000000000010 .
bx00000010000000000000000100000000000000010000000000000010 1"
bx00000010000000000000000100000000000000010000000000000010 :"
#3080
04
#3120
14
#3160
04
#3200
14
#3240
04
#3280
14
#3320
04
#3360
14
#3400
04
#3440
14
bx0000000100000010000000000000000100000000000000010000000000000010 .
bx0000000100000010000000000000000100000000000000010000000000000010 1"
bx0000000100000010000000000000000100000000000000010000000000000010 :"
#3480
04
#3520
14
#3560
04
#3600
14
#3640
04
#3680
14
#3720
04
#3760
14
#3800
04
#3840
14
bx000000100000000100000010000000000000000100000000000000010000000000000010 .
bx000000100000000100000010000000000000000100000000000000010000000000000010 1"
bx000000100000000100000010000000000000000100000000000000010000000000000010 :"
#3880
04
#3920
14
#3960
04
#4000
14
#4040
04
#4080
14
#4120
04
#4160
14
#4200
04
#4240
14
bx00000001000000100000000100000010000000000000000100000000000000010000000000000010 .
bx00000001000000100000000100000010000000000000000100000000000000010000000000000010 1"
bx00000001000000100000000100000010000000000000000100000000000000010000000000000010 :"
#4280
04
#4320
14
#4360
04
#4400
14
#4440
04
#4480
14
#4520
04
#4560
14
#4600
04
#4640
14
bx0000000000000001000000100000000100000010000000000000000100000000000000010000000000000010 .
bx0000000000000001000000100000000100000010000000000000000100000000000000010000000000000010 1"
bx0000000000000001000000100000000100000010000000000000000100000000000000010000000000000010 :"
#4680
04
#4720
14
#4760
04
#4800
14
#4840
04
#4880
14
#4920
04
#4960
14
#5000
04
#5040
14
bx000010100000000000000001000000100000000100000010000000000000000100000000000000010000000000000010 .
bx000010100000000000000001000000100000000100000010000000000000000100000000000000010000000000000010 1"
bx000010100000000000000001000000100000000100000010000000000000000100000000000000010000000000000010 :"
#5080
04
#5120
14
#5160
04
#5200
14
#5240
04
#5280
14
#5320
04
#5360
14
#5400
04
#5440
14
bx00100010000010100000000000000001000000100000000100000010000000000000000100000000000000010000000000000010 .
bx00100010000010100000000000000001000000100000000100000010000000000000000100000000000000010000000000000010 1"
bx00100010000010100000000000000001000000100000000100000010000000000000000100000000000000010000000000000010 :"
#5480
04
#5520
14
#5560
04
#5600
14
#5640
04
#5680
14
#5720
04
#5760
14
#5800
04
#5840
14
bx0000000100100010000010100000000000000001000000100000000100000010000000000000000100000000000000010000000000000010 .
bx0000000100100010000010100000000000000001000000100000000100000010000000000000000100000000000000010000000000000010 1"
bx0000000100100010000010100000000000000001000000100000000100000010000000000000000100000000000000010000000000000010 :"
#5880
04
#5920
14
#5960
04
#6000
14
#6040
04
#6080
14
#6120
04
#6160
14
#6200
04
#6240
14
bx000000000000000100100010000010100000000000000001000000100000000100000010000000000000000100000000000000010000000000000010 .
bx000000000000000100100010000010100000000000000001000000100000000100000010000000000000000100000000000000010000000000000010 1"
bx000000000000000100100010000010100000000000000001000000100000000100000010000000000000000100000000000000010000000000000010 :"
#6280
04
#6320
14
#6360
04
#6400
14
#6440
04
#6480
14
#6520
04
#6560
14
#6600
04
#6640
bx 0
bx 3"
bx 8"
0/
b10 5"
b0 4"
14
09"
01
b1011000000000000000100100010000010100000000000000001000000100000000100000010000000000000000100000000000000010000000000000010 .
b1011000000000000000100100010000010100000000000000001000000100000000100000010000000000000000100000000000000010000000000000010 1"
b1011000000000000000100100010000010100000000000000001000000100000000100000010000000000000000100000000000000010000000000000010 :"
#6660
10"
b0 /"
b1011000000000000000100100010000010100000000000000001000000100000000100000010000000000000000100000000000000010000000000000010 -"
#6669
1."
16"
#6670
b100 H
b100 f
b100 k
b10 O
b10 s
b0 N
b0 q
b1 T
b1 o
b0 L
b1 K
b1 j
b0 P
b10 Q
b10 [
b10000000000000010 -
b10000000000000010 E
b10000000000000010 Y
b10000000000000010 2"
#6680
0;
b10 B
b10 V
b10 ]
07
0I
0D
1G
0:
18
b0 J
b0 U
b0 Z
0"
0%
04
#6690
06
b10 F
b10 i
b10 n
b0 C
b0 \
b0 `
b10 #
b10 <
b10 X
b10 g
b10 u
b1000 A
b1000 b
b1000 e
b0 =
b0 _
b0 l
b0 r
b0 !
b0 >
b0 W
b0 p
b0 {
#6699
0x
0$"
#6700
0z
0w
b0 9
b0 ^
b0 m
#6720
1S
02
b0 5"
14
#6730
0S
12
b100 ,"
b100 &
b100 M
#6740
b1000 H
b1000 f
b1000 k
b1 B
b1 V
b1 ]
b1 O
b1 s
b10 T
b10 o
b1 L
b10 K
b10 j
b1 Q
b1 [
b1000 @
b1000 c
b1000000100000000000000001 -
b1000000100000000000000001 E
b1000000100000000000000001 Y
b1000000100000000000000001 2"
b1000 R
b1000 a
b1000 d
#6750
b1 F
b1 i
b1 n
b0 B
b0 V
b0 ]
b1 #
b1 <
b1 X
b1 g
b1 u
0G
#6760
b10 B
b10 V
b10 ]
16
b0 F
b0 i
b0 n
b10 C
b10 \
b10 `
b0 #
b0 <
b0 X
b0 g
b0 u
b10 =
b10 _
b10 l
b10 r
b10000 A
b10000 b
b10000 e
04
#6770
06
b10 F
b10 i
b10 n
b10 #
b10 <
b10 X
b10 g
b10 u
b11111110 9
b11111110 ^
b11111110 m
#6800
1S
02
14
#6810
0S
12
b1000 ,"
b1000 &
b1000 M
#6820
b0 H
b0 f
b0 k
b10 O
b10 s
b1 N
b1 q
b0 T
b0 o
b1010 L
b0 K
b0 j
b1 P
b10 Q
b10 [
b1100 @
b1100 c
b1010000000000000000100000010 -
b1010000000000000000100000010 E
b1010000000000000000100000010 Y
b1010000000000000000100000010 2"
b1100 R
b1100 a
b1100 d
#6830
b1 !"
13
1"
08
#6840
b10 !
b10 >
b10 W
b10 p
b10 {
b1100 A
b1100 b
b1100 e
04
#6880
1("
1+
b0 ,
b0 }
b0 &"
1*
b1 !"
02
b1 #"
14
#6920
04
#6960
14
#7000
04
#7040
14
#7080
04
#7120
14
#7160
04
#7200
14
#7240
04
#7280
14
#7320
04
#7360
14
bx00000000 )
bx00000000 |
bx00000000 )"
#7400
04
#7440
14
#7480
04
#7520
14
#7560
04
#7600
14
#7640
04
#7680
14
#7720
04
#7760
14
bx0000000000000000 )
bx0000000000000000 |
bx0000000000000000 )"
#7800
04
#7840
14
#7880
04
#7920
14
#7960
04
#8000
14
#8040
04
#8080
14
#8120
04
#8160
14
bx000000000000000000000000 )
bx000000000000000000000000 |
bx000000000000000000000000 )"
#8200
04
#8240
14
#8280
04
#8320
14
#8360
04
#8400
14
#8440
04
#8480
14
#8520
04
#8560
bx ,
bx }
bx &"
0*
b11 #"
b0 !"
14
0("
0+
b0 )
b0 |
b0 )"
#8580
1z
b0 y
b0 v
#8589
1x
1$"
#8600
04
#8640
03
b0 #"
14
#8650
12
b1100 ,"
b1100 &
b1100 M
#8660
b1011 L
b100010 Q
b100010 [
b10000 @
b10000 c
b1011000000000000000100100010 -
b1011000000000000000100100010 E
b1011000000000000000100100010 Y
b1011000000000000000100100010 2"
b10000 R
b10000 a
b10000 d
b100000000000000000 v
1w
#8670
b100010 B
b100010 V
b100010 ]
13
1G
1"
#8680
b100010 F
b100010 i
b100010 n
b100010 #
b100010 <
b100010 X
b100010 g
b100010 u
b10000 A
b10000 b
b10000 e
04
#8689
b10 !"
0x
0$"
#8720
1*"
1+
b100000000000000000 '
b100000000000000000 ~
b100000000000000000 '"
b0 ,
b0 }
b0 &"
1(
b10 !"
b10 #"
02
14
