cpu/cache/cpu_wavedata.vcd
$date
	Fri Jun 12 21:57:20 2020
$end
$version
	Icarus Verilog
$end
$timescale
	100ps
$end
$scope module cpu_tb $end
$var wire 8 ! WRITEDATA [7:0] $end
$var wire 1 " WRITE $end
$var wire 8 # RESULT [7:0] $end
$var wire 8 $ READDATA [7:0] $end
$var wire 1 % READ $end
$var wire 32 & PC [31:0] $end
$var wire 32 ' MEM_WRITEDATA [31:0] $end
$var wire 1 ( MEM_WRITE $end
$var wire 32 ) MEM_READDATA [31:0] $end
$var wire 1 * MEM_READ $end
$var wire 1 + MEM_BUSTWAIT $end
$var wire 6 , MEM_ADDRESS [5:0] $end
$var wire 1 - BUSYWAIT $end
$var reg 1 . CLK $end
$var reg 32 / INSTRUCTION [31:0] $end
$var reg 1 0 RESET $end
$var integer 32 1 i [31:0] $end
$scope module mycpu $end
$var wire 1 . CLK $end
$var wire 32 2 INSTRUCTION [31:0] $end
$var wire 1 0 RESET $end
$var wire 1 3 ZERO $end
$var wire 1 4 WRITESEL $end
$var wire 1 5 WRITEENABLE $end
$var wire 1 " WRITE $end
$var wire 8 6 TWOSCOMP [7:0] $end
$var wire 1 7 SUBMUXSEL $end
$var wire 1 8 SEL $end
$var wire 8 9 RESULT [7:0] $end
$var wire 8 : REGOUT2 [7:0] $end
$var wire 8 ; REGOUT1 [7:0] $end
$var wire 8 < READDATA [7:0] $end
$var wire 1 % READ $end
$var wire 32 = PCOUT [31:0] $end
$var wire 32 > PCIN [31:0] $end
$var wire 8 ? OPERAND1 [7:0] $end
$var wire 8 @ NONIMMEDIATE [7:0] $end
$var wire 1 A JUMP $end
$var wire 8 B IN [7:0] $end
$var wire 1 C IMMUXSEL $end
$var wire 32 D EXTNDED_SHIFT [31:0] $end
$var wire 1 - BUSYWAIT $end
$var wire 1 E BEQ $end
$var wire 3 F ALUOP [2:0] $end
$var reg 8 G DESTINATION [7:0] $end
$var reg 8 H OPCODE [7:0] $end
$var reg 32 I PC [31:0] $end
$var reg 3 J READREG1 [2:0] $end
$var reg 3 K READREG2 [2:0] $end
$var reg 8 L SOURCE1 [7:0] $end
$var reg 8 M SOURCE2 [7:0] $end
$var reg 32 N STORE [31:0] $end
$var reg 1 O TEMP $end
$var reg 3 P WRITEREG [2:0] $end
$scope module alupart $end
$var wire 1 3 ZERO $end
$var wire 3 Q SELECT [0:2] $end
$var wire 8 R DATA2 [0:7] $end
$var wire 8 S DATA1 [0:7] $end
$var reg 8 T RESULT [0:7] $end
$upscope $end
$scope module control $end
$var wire 32 U INSTRUCTION [31:0] $end
$var reg 3 V ALUOP [2:0] $end
$var reg 1 E BEQ $end
$var reg 1 C IMMUXSEL $end
$var reg 1 A JUMP $end
$var reg 1 % READ $end
$var reg 1 7 SUBMUXSEL $end
$var reg 1 " WRITE $end
$var reg 1 5 WRITEENABLE $end
$var reg 1 4 WRITESEL $end
$upscope $end
$scope module muximmediate $end
$var wire 8 W IMMEDIATE [7:0] $end
$var wire 1 C IMMUXSEL $end
$var wire 8 X NONIMMEDIATE [7:0] $end
$var reg 8 Y OPERAND1 [7:0] $end
$upscope $end
$scope module muxsubtract $end
$var wire 1 7 SUBMUXSEL $end
$var wire 8 Z TWOSCOMP [7:0] $end
$var wire 8 [ REGOUT2 [7:0] $end
$var reg 8 \ NONIMMEDIATE [7:0] $end
$upscope $end
$scope module myMUXPC $end
$var wire 32 ] STORE [31:0] $end
$var wire 1 8 SEL $end
$var wire 32 ^ PCIN [31:0] $end
$var reg 32 _ PCOUT [31:0] $end
$upscope $end
$scope module myadder $end
$var wire 32 ` STORE [31:0] $end
$var wire 32 a PCIN [31:0] $end
$var wire 32 b EXTNDED_SHIFT [31:0] $end
$upscope $end
$scope module mymuxreg $end
$var wire 8 c RESULT [7:0] $end
$var wire 1 4 WRITESEL $end
$var wire 8 d READDATA [7:0] $end
$var reg 8 e IN [7:0] $end
$upscope $end
$scope module mypc_selection $end
$var wire 1 E BEQ $end
$var wire 1 A JUMP $end
$var wire 1 8 SEL $end
$var wire 1 3 ZERO $end
$upscope $end
$scope module myseas $end
$var wire 8 f UNEXTENDED [7:0] $end
$var reg 32 g EXTNDED_SHIFT [31:0] $end
$upscope $end
$scope module mytwoscomplement $end
$var wire 8 h REGOUT2 [7:0] $end
$var reg 8 i TWOSCOMP [7:0] $end
$upscope $end
$scope module regfile $end
$var wire 1 . CLK $end
$var wire 8 j IN [7:0] $end
$var wire 3 k INADDRESS [2:0] $end
$var wire 8 l OUT1 [7:0] $end
$var wire 3 m OUT1ADDRESS [2:0] $end
$var wire 8 n OUT2 [7:0] $end
$var wire 3 o OUT2ADDRESS [2:0] $end
$var wire 1 0 RESET $end
$var wire 1 O WRITE $end
$var integer 32 p i [31:0] $end
$upscope $end
$upscope $end
$scope module mydatacache $end
$var wire 8 q address [7:0] $end
$var wire 1 . clock $end
$var wire 32 r data [31:0] $end
$var wire 1 s dirty $end
$var wire 1 t hit $end
$var wire 1 % read $end
$var wire 1 0 reset $end
$var wire 3 u tag [2:0] $end
$var wire 1 v valid $end
$var wire 1 " write $end
$var wire 8 w writedata [7:0] $end
$var wire 32 x mem_readdata [31:0] $end
$var wire 1 + mem_busywait $end
$var reg 1 - busywait $end
$var reg 6 y mem_address [5:0] $end
$var reg 1 * mem_read $end
$var reg 1 ( mem_write $end
$var reg 32 z mem_writedata [31:0] $end
$var reg 3 { next_state [2:0] $end
$var reg 8 | readdata [7:0] $end
$var reg 3 } state [2:0] $end
$var reg 1 ~ tagCompared $end
$var integer 32 !" i [31:0] $end
$upscope $end
$scope module mydatamemory $end
$var wire 6 "" address [5:0] $end
$var wire 1 . clock $end
$var wire 1 * read $end
$var wire 1 0 reset $end
$var wire 1 ( write $end
$var wire 32 #" writedata [31:0] $end
$var reg 1 + busywait $end
$var reg 1 $" readaccess $end
$var reg 32 %" readdata [31:0] $end
$var reg 1 &" writeaccess $end
$var integer 32 '" i [31:0] $end
$upscope $end
$upscope $end
$scope module cpu_tb $end
$scope module mydatacache $end
$var reg 32 (" \Data[0] [31:0] $end
$upscope $end
$upscope $end
$scope module cpu_tb $end
$scope module mydatacache $end
$var reg 3 )" \Tag[0] [2:0] $end
$upscope $end
$upscope $end
$scope module cpu_tb $end
$scope module mydatacache $end
$var reg 1 *" \Valid[0] $end
$upscope $end
$upscope $end
$scope module cpu_tb $end
$scope module mydatacache $end
$var reg 1 +" \Dirty[0] $end
$upscope $end
$upscope $end
$scope module cpu_tb $end
$scope module mycpu $end
$scope module regfile $end
$var reg 8 ," \REGISTERS[0] [7:0] $end
$upscope $end
$upscope $end
$upscope $end
$scope module cpu_tb $end
$scope module mydatacache $end
$var reg 32 -" \Data[1] [31:0] $end
$upscope $end
$upscope $end
$scope module cpu_tb $end
$scope module mydatacache $end
$var reg 3 ." \Tag[1] [2:0] $end
$upscope $end
$upscope $end
$scope module cpu_tb $end
$scope module mydatacache $end
$var reg 1 /" \Valid[1] $end
$upscope $end
$upscope $end
$scope module cpu_tb $end
$scope module mydatacache $end
$var reg 1 0" \Dirty[1] $end
$upscope $end
$upscope $end
$scope module cpu_tb $end
$scope module mycpu $end
$scope module regfile $end
$var reg 8 1" \REGISTERS[1] [7:0] $end
$upscope $end
$upscope $end
$upscope $end
$scope module cpu_tb $end
$scope module mydatacache $end
$var reg 32 2" \Data[2] [31:0] $end
$upscope $end
$upscope $end
$scope module cpu_tb $end
$scope module mydatacache $end
$var reg 3 3" \Tag[2] [2:0] $end
$upscope $end
$upscope $end
$scope module cpu_tb $end
$scope module mydatacache $end
$var reg 1 4" \Valid[2] $end
$upscope $end
$upscope $end
$scope module cpu_tb $end
$scope module mydatacache $end
$var reg 1 5" \Dirty[2] $end
$upscope $end
$upscope $end
$scope module cpu_tb $end
$scope module mycpu $end
$scope module regfile $end
$var reg 8 6" \REGISTERS[2] [7:0] $end
$upscope $end
$upscope $end
$upscope $end
$scope module cpu_tb $end
$scope module mydatacache $end
$var reg 32 7" \Data[3] [31:0] $end
$upscope $end
$upscope $end
$scope module cpu_tb $end
$scope module mydatacache $end
$var reg 3 8" \Tag[3] [2:0] $end
$upscope $end
$upscope $end
$scope module cpu_tb $end
$scope module mydatacache $end
$var reg 1 9" \Valid[3] $end
$upscope $end
$upscope $end
$scope module cpu_tb $end
$scope module mydatacache $end
$var reg 1 :" \Dirty[3] $end
$upscope $end
$upscope $end
$scope module cpu_tb $end
$scope module mycpu $end
$scope module regfile $end
$var reg 8 ;" \REGISTERS[3] [7:0] $end
$upscope $end
$upscope $end
$upscope $end
$scope module cpu_tb $end
$scope module mydatacache $end
$var reg 32 <" \Data[4] [31:0] $end
$upscope $end
$upscope $end
$scope module cpu_tb $end
$scope module mydatacache $end
$var reg 3 =" \Tag[4] [2:0] $end
$upscope $end
$upscope $end
$scope module cpu_tb $end
$scope module mydatacache $end
$var reg 1 >" \Valid[4] $end
$upscope $end
$upscope $end
$scope module cpu_tb $end
$scope module mydatacache $end
$var reg 1 ?" \Dirty[4] $end
$upscope $end
$upscope $end
$scope module cpu_tb $end
$scope module mycpu $end
$scope module regfile $end
$var reg 8 @" \REGISTERS[4] [7:0] $end
$upscope $end
$upscope $end
$upscope $end
$scope module cpu_tb $end
$scope module mydatacache $end
$var reg 32 A" \Data[5] [31:0] $end
$upscope $end
$upscope $end
$scope module cpu_tb $end
$scope module mydatacache $end
$var reg 3 B" \Tag[5] [2:0] $end
$upscope $end
$upscope $end
$scope module cpu_tb $end
$scope module mydatacache $end
$var reg 1 C" \Valid[5] $end
$upscope $end
$upscope $end
$scope module cpu_tb $end
$scope module mydatacache $end
$var reg 1 D" \Dirty[5] $end
$upscope $end
$upscope $end
$scope module cpu_tb $end
$scope module mycpu $end
$scope module regfile $end
$var reg 8 E" \REGISTERS[5] [7:0] $end
$upscope $end
$upscope $end
$upscope $end
$scope module cpu_tb $end
$scope module mydatacache $end
$var reg 32 F" \Data[6] [31:0] $end
$upscope $end
$upscope $end
$scope module cpu_tb $end
$scope module mydatacache $end
$var reg 3 G" \Tag[6] [2:0] $end
$upscope $end
$upscope $end
$scope module cpu_tb $end
$scope module mydatacache $end
$var reg 1 H" \Valid[6] $end
$upscope $end
$upscope $end
$scope module cpu_tb $end
$scope module mydatacache $end
$var reg 1 I" \Dirty[6] $end
$upscope $end
$upscope $end
$scope module cpu_tb $end
$scope module mycpu $end
$scope module regfile $end
$var reg 8 J" \REGISTERS[6] [7:0] $end
$upscope $end
$upscope $end
$upscope $end
$scope module cpu_tb $end
$scope module mydatacache $end
$var reg 32 K" \Data[7] [31:0] $end
$upscope $end
$upscope $end
$scope module cpu_tb $end
$scope module mydatacache $end
$var reg 3 L" \Tag[7] [2:0] $end
$upscope $end
$upscope $end
$scope module cpu_tb $end
$scope module mydatacache $end
$var reg 1 M" \Valid[7] $end
$upscope $end
$upscope $end
$scope module cpu_tb $end
$scope module mydatacache $end
$var reg 1 N" \Dirty[7] $end
$upscope $end
$upscope $end
$scope module cpu_tb $end
$scope module mycpu $end
$scope module regfile $end
$var reg 8 O" \REGISTERS[7] [7:0] $end
$upscope $end
$upscope $end
$upscope $end
$enddefinitions $end
#0
$dumpvars
bx O"
0N"
0M"
bx L"
bx K"
bx J"
0I"
0H"
bx G"
bx F"
bx E"
0D"
0C"
bx B"
bx A"
bx @"
0?"
0>"
bx ="
bx <"
bx ;"
0:"
09"
bx 8"
bx 7"
bx 6"
05"
04"
bx 3"
bx 2"
bx 1"
00"
0/"
bx ."
bx -"
bx ,"
0+"
0*"
bx )"
bx ("
b100000000 '"
0&"
bx %"
0$"
bx #"
bx ""
b1000 !"
x~
b0 }
bx |
b0 {
bx z
bx y
bx x
bx w
xv
bx u
xt
xs
bx r
bx q
bx p
bx o
bx n
bx m
bx l
bx k
bx j
bx i
bx h
bx g
bx f
bx e
bx d
bx c
bx b
bx a
bx `
bx _
bx ^
bx ]
bx \
bx [
bx Z
bx Y
bx X
bx W
bx V
bx U
bx T
bx S
bx R
bx Q
bx P
xO
bx N
bx M
bx L
bx K
bx J
bx I
bx H
bx G
bx F
xE
bx D
xC
bx B
xA
bx @
bx ?
bx >
bx =
bx <
bx ;
bx :
bx 9
x8
x7
bx 6
x5
x4
x3
bx 2
b1000 1
10
bx /
1.
0-
bx ,
0+
0*
bx )
0(
bx '
bx &
x%
bx $
bx #
x"
bx !
$end
#10
b0 O"
b0 J"
b0 E"
b0 @"
b0 ;"
b0 6"
b0 1"
b0 ,"
b1000 p
b11111111111111111111111111111100 &
b11111111111111111111111111111100 I
#20
b0 =
b0 _
b0 N
b0 ]
b0 `
00
#40
0.
#80
1.
#90
b0 &
b0 I
#100
b100 =
b100 _
b100 N
b100 ]
b100 `
#110
b100 D
b100 b
b100 g
b10 K
b10 o
b0 J
b0 m
b1 P
b1 k
b0 H
b1 G
b1 f
b0 L
b10 M
b10 W
b10000000000000010 /
b10000000000000010 2
b10000000000000010 U
#120
08
b10 ?
b10 R
b10 Y
1O
04
0E
0A
1C
07
15
b0 F
b0 Q
b0 V
0"
0%
0.
#130
03
b10 B
b10 e
b10 j
b0 @
b0 X
b0 \
b10 #
b10 9
b10 T
b10 c
b10 q
b1000 >
b1000 ^
b1000 a
b0 :
b0 [
b0 h
b0 n
b0 !
b0 ;
b0 S
b0 l
b0 w
#139
0t
0~
#140
0v
0s
b0 6
b0 Z
b0 i
#160
1.
#170
b10 1"
b100 &
b100 I
#180
b1000 =
b1000 _
b1000 N
b1000 ]
b1000 `
#190
b1000 D
b1000 b
b1000 g
b1 ?
b1 R
b1 Y
b1 K
b1 o
b10 P
b10 k
b1 H
b10 G
b10 f
b1 M
b1 W
b1000000100000000000000001 /
b1000000100000000000000001 2
b1000000100000000000000001 U
#200
b1 B
b1 e
b1 j
b0 ?
b0 R
b0 Y
b1 #
b1 9
b1 T
b1 c
b1 q
0C
0.
#210
b10 ?
b10 R
b10 Y
13
b0 B
b0 e
b0 j
b10 @
b10 X
b10 \
b0 #
b0 9
b0 T
b0 c
b0 q
b10000 >
b10000 ^
b10000 a
b10 :
b10 [
b10 h
b10 n
#220
03
b10 B
b10 e
b10 j
b10 #
b10 9
b10 T
b10 c
b10 q
b11111110 6
b11111110 Z
b11111110 i
#240
1.
#250
b10 6"
b1000 &
b1000 I
#260
b1100 =
b1100 _
b1100 N
b1100 ]
b1100 `
#270
b0 D
b0 b
b0 g
b10 K
b10 o
b1 J
b1 m
b0 P
b0 k
b1010 H
b0 G
b0 f
b1 L
b10 M
b10 W
b1010000000000000000100000010 /
b1010000000000000000100000010 2
b1010000000000000000100000010 U
#280
b1 {
1-
0O
1"
05
0.
#290
b1100 >
b1100 ^
b1100 a
b10 !
b10 ;
b10 S
b10 l
b10 w
#320
1$"
1+
b0 ,
b0 y
b0 ""
1*
b1 {
b1 }
1.
#360
0.
#400
1.
#440
0.
#480
1.
#520
0.
#560
1.
#600
0.
#640
1.
#680
0.
#720
1.
#760
0.
#800
1.
bx00000000 )
bx00000000 x
bx00000000 %"
#840
0.
#880
1.
#920
0.
#960
1.
#1000
0.
#1040
1.
#1080
0.
#1120
1.
#1160
0.
#1200
1.
bx0000000000000000 )
bx0000000000000000 x
bx0000000000000000 %"
#1240
0.
#1280
1.
#1320
0.
#1360
1.
#1400
0.
#1440
1.
#1480
0.
#1520
1.
#1560
0.
#1600
1.
bx000000000000000000000000 )
bx000000000000000000000000 x
bx000000000000000000000000 %"
#1640
0.
#1680
1.
#1720
0.
#1760
1.
#1800
0.
#1840
1.
#1880
0.
#1920
1.
#1960
0.
#2000
bx ,
bx y
bx ""
0*
b11 }
b0 {
1.
0$"
0+
b0 )
b0 x
b0 %"
#2010
0+"
1*"
b0 )"
b0 ("
#2020
1v
b0 u
b0 r
#2029
1t
1~
#2030
0+"
1*"
b0 )"
b0 ("
#2040
0.
#2080
0-
b0 }
1.
#2090
b100000000000000000 ("
1+"
1*"
b1100 &
b1100 I
#2100
b10000 =
b10000 _
b10000 N
b10000 ]
b10000 `
b100000000000000000 r
1s
#2110
b1011 H
b100010 M
b100010 W
b1011000000000000000100100010 /
b1011000000000000000100100010 2
b1011000000000000000100100010 U
#2120
b100010 ?
b100010 R
b100010 Y
1-
1C
1"
b10000 >
b10000 ^
b10000 a
0.
#2130
b100010 B
b100010 e
b100010 j
b100010 #
b100010 9
b100010 T
b100010 c
b100010 q
#2139
b10 {
0t
0~
#2160
1&"
1+
b100000000000000000 '
b100000000000000000 z
b100000000000000000 #"
b0 ,
b0 y
b0 ""
1(
b10 {
b10 }
1.
